0x0: MOV r8, r2   //r2=105 (bc r8 should contains 105)
0x1: MOV r9,0x45  //init round number

0x2: MOV r15,0x55
0x3: MOV r0, r0^r15
0x4: MOV r15, r7
0x5: MOV r15, r15&r2
0x6: MOV r15, r15|r3
0x7: MOV r15, r15+r5
0x8: MOV r1, r1^r15 //r1=r1^(((r7&r2)|r3)+r5)

0x9: MOV r15,0x53
0xa: MOV r4, r4*r15 //r4=r4*0x53

0xb: MOV r2, ~r2 //r2=~r2
0xc: MOV r3, r3-r1 //r3=r3-r1
0xd: MOV r7, -r7 //r7=-r7

0xe: MOV r15,0x3
0xf: MOV r14, r7
0x10: MOV r14, r14>>r15 
0x11: MOV r15,0x5
0x12: MOV r13, r6
0x13: MOV r13, r13<<r15 //r13=r13<<5
0x14: MOV r13, r13|r14 // r13=r13|r14
0x15: MOV r5, r5+r13 //r5=r5+(r6<<5|r7>>3)

//if r4 > 0x4b
0x16: MOV r15,0x4b
0x17: UPF r4, r15
0x18: JG  0x1c
//{
  0x19: MOV r15,0x41
  0x1a: MOV r15, r15*r4
  0x1b: MOV r6, r6^r15 //r6=r6^(r4*0x41)
//}

//r15=r0+0x4c
0x1c: MOV r15,0x4c
0x1d: MOV r0, r0+r15
0x1e: MOV r15, r0

//shift r1->r7 to r0->r6 r7=r0+0x4c value=(value >> 1) + (value[0]+0x4c) << 7
0x1f: MOV r0, r1
0x20: MOV r1, r2
0x21: MOV r2, r3
0x22: MOV r3, r4
0x23: MOV r4, r5
0x24: MOV r5, r6
0x25: MOV r6, r7
0x26: MOV r7, r15

//45 rounds
0x27: MOV r15,0x1
0x28: MOV r9, r9-r15
0x29: MOV r15,0x0
0x2a: UPF r9, r15
0x2b: JNE 0x2

0x2c: MOV r15,0xc8
0x2d: UPF r15, r0
0x2e: JNE 0x52
0x2f: MOV r15,0xb6
0x30: UPF r15, r1
0x31: JNE 0x52
0x32: MOV r15,0xf
0x33: UPF r15, r2
0x34: JNE 0x52
0x35: MOV r15,0xec
0x36: UPF r15, r3
0x37: JNE 0x52
0x38: MOV r15,0x6c
0x39: UPF r15, r4
0x3a: JNE 0x52
0x3b: MOV r15,0x94
0x3c: UPF r15, r5
0x3d: JNE 0x52
0x3e: MOV r15,0xad
0x3f: UPF r15, r6
0x40: JNE 0x52
0x41: MOV r15,0x5d
0x42: UPF r15, r7
0x43: JNE 0x52
0x44: OUT r8^0x3a
0x45: OUT r8^0x1c
0x46: OUT r8^0xa
0x47: OUT r8^0xa
0x48: OUT r8^0xc
0x49: OUT r8^0x1a
0x4a: OUT r8^0x1a
0x4b: OUT r8^0x48
0x4c: OUT r8^0x49
0x4d: OUT r8^0x53
0x4e: OUT r8^0x44
0x4f: OUT r8^0x2d
0x50: OUT r8^0x63
0x51: HALT
0x52: MOV r15,0xa9
0x53: OUT r15^0xef
0x54: OUT r15^0xc8
0x55: OUT r15^0xc0
0x56: OUT r15^0xc5
0x57: OUT r15^0xdc
0x58: OUT r15^0xdb
0x59: OUT r15^0xcc
0x5a: OUT r15^0x89
0x5b: OUT r15^0x93
0x5c: OUT r15^0x84
0x5d: OUT r15^0xf9
0x5e: OUT r15^0xa3
0x5f: HALT
